<?xml version="1.0" encoding="UTF-8" standalone="no"?>
<!-- Created with Inkscape (http://www.inkscape.org/) -->

<svg
   xmlns:dc="http://purl.org/dc/elements/1.1/"
   xmlns:cc="http://creativecommons.org/ns#"
   xmlns:rdf="http://www.w3.org/1999/02/22-rdf-syntax-ns#"
   xmlns:svg="http://www.w3.org/2000/svg"
   xmlns="http://www.w3.org/2000/svg"
   xmlns:sodipodi="http://sodipodi.sourceforge.net/DTD/sodipodi-0.dtd"
   xmlns:inkscape="http://www.inkscape.org/namespaces/inkscape"
   width="677.61096"
   height="179.54858"
   id="svg2"
   version="1.1"
   inkscape:version="0.92.3 (2405546, 2018-03-11)"
   sodipodi:docname="logo.svg">
  <defs
     id="defs4" />
  <sodipodi:namedview
     id="base"
     pagecolor="#ffffff"
     bordercolor="#666666"
     borderopacity="1.0"
     inkscape:pageopacity="0.0"
     inkscape:pageshadow="2"
     inkscape:zoom="1.9494962"
     inkscape:cx="182.44788"
     inkscape:cy="89.774292"
     inkscape:document-units="px"
     inkscape:current-layer="layer1"
     showgrid="false"
     showguides="false"
     inkscape:guide-bbox="true"
     inkscape:window-width="1920"
     inkscape:window-height="1020"
     inkscape:window-x="0"
     inkscape:window-y="0"
     inkscape:window-maximized="1"
     fit-margin-top="0"
     fit-margin-left="0"
     fit-margin-right="0"
     fit-margin-bottom="0">
    <sodipodi:guide
       position="113.2814,68.230335"
       orientation="70.210999,0"
       id="guide3773"
       inkscape:locked="false" />
    <sodipodi:guide
       position="183.4924,-1.9806651"
       orientation="0,70.210999"
       id="guide3775"
       inkscape:locked="false" />
    <sodipodi:guide
       position="183.4924,-1.9806651"
       orientation="-70.210999,0"
       id="guide3777"
       inkscape:locked="false" />
    <sodipodi:guide
       position="183.4924,68.230335"
       orientation="0,-70.210999"
       id="guide3779"
       inkscape:locked="false" />
    <sodipodi:guide
       orientation="1,0"
       position="10.730768,43.085595"
       id="guide3781"
       inkscape:locked="false" />
    <sodipodi:guide
       orientation="1,0"
       position="285.22906,-1.9806651"
       id="guide3783"
       inkscape:locked="false" />
    <sodipodi:guide
       orientation="0,1"
       position="127.24443,171.4481"
       id="guide3785"
       inkscape:locked="false" />
    <sodipodi:guide
       orientation="0,1"
       position="133.66256,-104.5313"
       id="guide3787"
       inkscape:locked="false" />
  </sodipodi:namedview>
  <metadata
     id="metadata7">
    <rdf:RDF>
      <cc:Work
         rdf:about="">
        <dc:format>image/svg+xml</dc:format>
        <dc:type
           rdf:resource="http://purl.org/dc/dcmitype/StillImage" />
        <dc:title />
      </cc:Work>
    </rdf:RDF>
  </metadata>
  <g
     inkscape:label="Layer 1"
     inkscape:groupmode="layer"
     id="layer1"
     transform="translate(-49.00717,-350.11674)">
    <g
       style="display:inline;fill:#ff6600;fill-opacity:1"
       transform="matrix(0.76591289,-0.01941089,0.04222543,0.78057668,116.29756,194.21525)"
       id="g4432-3">
      <g
         transform="matrix(1.1308891,0,0,1.1308891,-2.2031766,-23.419267)"
         style="fill:#ff6600;fill-opacity:1"
         id="g4461-6">
        <path
           sodipodi:nodetypes="csssscsssscssssssssssccsscsssscssssssssssssssssscc"
           inkscape:connector-curvature="0"
           id="path4463-7"
           d="m 44.086201,394.39048 c -1.410963,1.54915 -4.069265,-0.58742 -5.900535,0.24696 -2.14482,0.97725 -10.653692,-2.53119 -11.617532,-3.83911 -0.41478,-0.56285 -2.99859,-1.64574 -5.74179,-2.4064 -5.62229,-1.55902 -6.20163,-1.97296 -7.31617,-5.2276 -0.7207,-2.10456 -1.05455,-2.31003 -3.6161404,-2.22567 -1.55217,0.0511 -4.61212,0.77275 -6.79989,1.60365 -4.51448,1.71456 -10.5112687,2.36966 -7.9032791,0.75231 5.51525002,-3.42031 5.37073914,-8.82928 7.8852091,-16.13771 3.46449,-10.06972 4.0587957,-14.10133 3.98691,-36.93714 -0.038515,-12.235 0.6708499,-23.55228 0.6708499,-23.55228 0,0 1.0057699,-6.20275 1.2516503,-7.49552 0.39877,-2.09667 1.3516902,-3.30553 -0.1229202,-3.30553 -2.50486,0 -15.30758,8.87427 -19.3564996,13.41704 -1.96666,2.20656 -5.31624,7.08764 -7.44351,10.84684 -2.12726,3.75921 -4.10879,6.83492 -4.40341,6.83492 -0.9939,0 -1.5214,-5.20438 -1.12043,-11.05438 0.83276,-12.14985 8.01423,-21.92163 25.1089796,-34.16563 10.8304004,-7.7572 19.1688304,-14.0527 21.7503904,-19.14717 2.93922,-5.80027 5.146548,-5.9653 7.431368,-20.68837 1.14757,-7.3948 0.813972,-23.44128 1.424972,-24.62282 1.69534,-3.27844 5.52295,-6.75206 9.53242,-8.65083 2.780027,-1.65255 7.32167,-2.22417 11.621216,-1.41554 0,0 1.413464,0.4331 2.690734,1.11695 1.27726,0.68386 3.29865,1.77938 4.49197,2.4345 1.19333,0.65513 3.49309,1.19314 5.11058,1.19559 3.5758,0.005 11.30651,1.35927 12.09648,2.11841 0.31506,0.30276 -1.52845,1.58492 -4.09668,2.84925 -5.47289,2.6943 -11.519261,4.49473 -12.223701,8.24969 -0.65191,3.475 -5.902548,21.72881 4.646609,36.35253 l 6.761592,9.37323 5.81533,6.14965 c 7.22718,7.64267 9.99803,11.64694 12.38257,17.89461 2.4969,6.54208 4.550173,32.39048 2.837523,38.93708 -1.47725,5.64676 -3.88394,10.57612 -4.74186,9.7122 -0.34326,-0.34566 -0.969294,-2.79616 -1.3914,-5.44554 -1.527634,-9.58829 -9.339371,-39.73653 -11.043167,-41.32493 -1.091858,-1.01791 -6.159021,-12.56873 -7.211969,-0.77646 -1.449357,16.23178 -9.670747,53.65595 -17.612815,69.39407 -0.909538,1.80235 -2.519179,3.55409 -3.323946,5.24438 -3.801061,7.98354 7.862304,9.66944 16.366104,10.31259 4.43898,0.33571 5.96016,0.77021 7.63735,2.18148 2.65653,2.23532 2.69755,3.76445 0.10547,3.93172 -7.23372,0.46679 -11.05517,0.30847 -13.76661,-0.57036 -1.70444,-0.55244 -4.89239,-1.00444 -7.08434,-1.00444 -4.1685,0 -5.32192,-0.71662 -8.37184,-5.20142 -3.06389,-4.50534 -16.44832,-4.63435 -17.09563,-0.16478 -0.34326,2.37011 2.00444,3.769 9.65356,5.75217 8.6664,2.24691 10.568881,5.73906 10.568881,5.73906 z"
           style="fill:#ff6600;fill-opacity:1"
           inkscape:export-xdpi="22"
           inkscape:export-ydpi="22" />
      </g>
    </g>
    <g
       style="display:inline;fill:#ff6600;fill-opacity:1"
       id="g255-3"
       transform="matrix(4.2516856,0.04515109,-0.04515109,4.2516856,-1704.975,726.07458)">
      <g
         id="g323-6"
         transform="translate(49.825255,6.9201743)"
         style="fill:#ff6600;fill-opacity:1">
        <g
           id="g742-7"
           transform="matrix(0.75248921,0,0,0.75248921,103.61946,-13.442961)"
           style="fill:#ff6600;fill-opacity:1">
          <g
             style="display:inline;fill:#ff6600;fill-opacity:1"
             id="g5461-5-5"
             transform="matrix(0.11355604,0.00109827,-0.00216041,-0.11349399,-650.34954,740.39727)">
            <g
               id="g3843-3-3"
               transform="matrix(0.3445744,0,0,0.3445744,5442.8841,4951.4156)"
               style="fill:#ff6600;fill-opacity:1">
              <g
                 transform="matrix(0.37962246,0,0,0.37962246,10328.544,6312.2208)"
                 id="g4524-5-5"
                 style="fill:#ff6600;fill-opacity:1" />
              <g
                 id="g3854-6-6"
                 transform="translate(402.23931,-589.95098)"
                 style="fill:#ff6600;fill-opacity:1">
                <g
                   id="g3617-2"
                   style="fill:#ff6600;fill-opacity:1">
                  <g
                     transform="matrix(3.7174285,0,0,-3.7174285,10335.046,6947.2763)"
                     id="g4396-9"
                     style="display:inline;fill:#ff6600;fill-opacity:1">
                    <g
                       aria-label="podcast"
                       transform="matrix(1.0003043,-0.01827469,-0.00798396,0.99984165,0,0)"
                       style="font-style:normal;font-weight:normal;line-height:0%;font-family:sans-serif;letter-spacing:0px;word-spacing:0px;fill:#ff6600;fill-opacity:1;stroke:none;stroke-width:1px;stroke-linecap:butt;stroke-linejoin:miter;stroke-opacity:1"
                       id="text4335-1">
                      <g
                         id="g1724">
                        <path
                           id="path1702"
                           style="font-style:normal;font-variant:normal;font-weight:bold;font-stretch:normal;font-size:149.91201782px;line-height:0;font-family:'Avenir Next LT Pro';-inkscape-font-specification:'Avenir Next LT Pro Bold';fill:#ff6600;fill-opacity:1"
                           d="m 265.26414,-260.71549 c 0,-20.83777 -13.64199,-39.12703 -35.37923,-39.12703 -10.94358,0 -19.33865,5.24692 -23.83602,11.2434 h -0.44973 v -9.14464 h -23.38628 v 110.63507 h 24.58558 v -44.22404 h 0.29982 c 4.64727,6.44622 13.49208,10.34393 22.63671,10.34393 22.48681,0 35.52915,-18.88892 35.52915,-39.72669 z m -23.83601,0 c 0,9.74428 -5.84657,19.33865 -17.5397,19.33865 -11.09349,0 -17.98945,-9.44445 -17.98945,-19.18873 0,-9.44446 6.89596,-19.18874 17.98945,-19.18874 11.69313,0 17.5397,9.44445 17.5397,19.03882 z"
                           inkscape:connector-curvature="0" />
                        <path
                           id="path1704"
                           style="font-style:normal;font-variant:normal;font-weight:bold;font-stretch:normal;font-size:149.91201782px;line-height:0;font-family:'Avenir Next LT Pro';-inkscape-font-specification:'Avenir Next LT Pro Bold';fill:#ff6600;fill-opacity:1"
                           d="m 359.86056,-260.71549 c 0,-24.43566 -18.88891,-39.42686 -41.52563,-39.42686 -22.4868,0 -41.37571,14.9912 -41.37571,39.42686 0,24.43566 18.88891,40.02651 41.37571,40.02651 22.63672,0 41.52563,-15.59085 41.52563,-40.02651 z m -23.6861,0 c 0,9.59437 -6.14639,19.33865 -17.68961,19.33865 -11.54323,0 -17.68962,-9.74428 -17.68962,-19.33865 0,-9.59437 5.99648,-19.03882 17.5397,-19.03882 11.54323,0 17.83953,9.44445 17.83953,19.03882 z"
                           inkscape:connector-curvature="0" />
                        <path
                           id="path1706"
                           style="font-style:normal;font-variant:normal;font-weight:bold;font-stretch:normal;font-size:149.91201782px;line-height:0;font-family:'Avenir Next LT Pro';-inkscape-font-specification:'Avenir Next LT Pro Bold';fill:#ff6600;fill-opacity:1"
                           d="m 454.60325,-223.08757 v -113.33349 h -24.58557 v 46.62264 h -0.29983 c -4.19754,-4.94709 -11.84305,-10.0441 -22.78663,-10.0441 -21.73724,0 -35.22932,18.28926 -35.22932,39.12703 0,20.83777 13.04235,39.72669 35.52915,39.72669 9.89419,0 19.63847,-4.34745 24.43566,-11.84305 h 0.29982 v 9.74428 z m -23.53619,-37.478 c 0,9.74428 -6.89595,19.18873 -17.98944,19.18873 -11.69314,0 -17.68962,-9.59437 -17.68962,-19.33865 0,-9.59437 5.99648,-19.03882 17.68962,-19.03882 11.09349,0 17.98944,9.74428 17.98944,19.18874 z"
                           inkscape:connector-curvature="0" />
                        <path
                           id="path1708"
                           style="font-style:normal;font-variant:normal;font-weight:bold;font-stretch:normal;font-size:149.91201782px;line-height:0;font-family:'Avenir Next LT Pro';-inkscape-font-specification:'Avenir Next LT Pro Bold';fill:#ff6600;fill-opacity:1"
                           d="m 539.7517,-290.09824 c -5.84657,-5.99648 -17.08997,-10.04411 -27.73373,-10.04411 -23.23636,0 -41.67554,15.44094 -41.67554,39.72669 0,24.73548 18.28927,39.72668 41.82546,39.72668 10.94357,0 21.43742,-3.59789 27.58381,-9.59437 l -13.642,-16.64023 c -2.99824,3.59789 -8.39507,5.54674 -13.34217,5.54674 -10.79366,0 -17.5397,-8.69489 -17.5397,-19.03882 0,-10.34393 6.89595,-19.18874 17.23988,-19.18874 4.9471,0 10.34393,2.39859 13.04235,5.99648 z"
                           inkscape:connector-curvature="0" />
                        <path
                           id="path1710"
                           style="font-style:normal;font-variant:normal;font-weight:bold;font-stretch:normal;font-size:149.91201782px;line-height:0;font-family:'Avenir Next LT Pro';-inkscape-font-specification:'Avenir Next LT Pro Bold';fill:#ff6600;fill-opacity:1"
                           d="m 593.56873,-253.06997 c 0,9.29454 -5.54675,15.29102 -15.44094,15.29102 -4.9471,0 -10.64376,-1.94885 -10.64376,-7.64551 0,-8.84481 12.14288,-10.19402 22.93654,-10.19402 h 3.14816 z m -32.68082,-21.1376 c 4.49736,-4.19753 11.39331,-7.64551 18.43917,-7.64551 7.64552,0 13.49209,3.44798 13.49209,10.79366 v 1.1993 c -21.73725,0 -47.97185,3.59789 -47.97185,25.18522 0,17.53971 15.29103,23.38627 27.13407,23.38627 8.84481,0 17.3898,-3.59788 21.1376,-9.74428 h 0.44974 v 7.94534 h 22.4868 v -37.62792 c 0,-27.13407 -9.29455,-39.42686 -34.32985,-39.42686 -12.14288,0 -24.58558,4.34745 -33.28047,12.59261 z"
                           inkscape:connector-curvature="0" />
                        <path
                           id="path1712"
                           style="font-style:normal;font-variant:normal;font-weight:bold;font-stretch:normal;font-size:149.91201782px;line-height:0;font-family:'Avenir Next LT Pro';-inkscape-font-specification:'Avenir Next LT Pro Bold';fill:#ff6600;fill-opacity:1"
                           d="m 691.76252,-289.64851 c -7.34569,-6.89595 -18.88892,-10.49384 -29.98241,-10.49384 -14.24164,0 -31.03178,7.19578 -31.03178,25.03531 0,14.09173 11.39331,19.33865 21.73724,21.73724 10.19402,2.39859 14.84129,3.89771 14.84129,8.54499 0,4.79718 -4.79719,6.44621 -8.84481,6.44621 -7.19578,0 -13.94182,-3.59788 -18.28927,-8.39507 l -13.7919,14.54147 c 7.79542,7.4956 20.38803,11.54322 32.53091,11.54322 15.29102,0 31.93126,-6.59613 31.93126,-25.48504 0,-14.54147 -12.4427,-20.23812 -23.83601,-22.78663 -9.59437,-2.09877 -13.642,-3.29806 -13.642,-7.4956 0,-4.34745 4.64727,-5.99648 9.29455,-5.99648 5.99648,0 11.69313,2.99824 15.59085,6.74604 z"
                           inkscape:connector-curvature="0" />
                        <path
                           id="path1714"
                           style="font-style:normal;font-variant:normal;font-weight:bold;font-stretch:normal;font-size:149.91201782px;line-height:0;font-family:'Avenir Next LT Pro';-inkscape-font-specification:'Avenir Next LT Pro Bold';fill:#ff6600;fill-opacity:1"
                           d="m 749.32646,-279.30458 v -18.43918 h -17.53971 v -19.63847 h -24.13584 v 19.63847 h -11.84304 v 18.43918 h 11.99296 v 31.48153 c 0,15.89067 6.59613,26.53442 26.53442,26.53442 5.24692,0 10.94358,-1.04938 14.24165,-2.24868 l -0.29983,-17.98944 c -1.79894,0.74956 -4.79718,1.1993 -7.19578,1.1993 -7.04586,0 -9.29454,-3.59789 -9.29454,-10.49384 v -28.48329 z"
                           inkscape:connector-curvature="0" />
                      </g>
                    </g>
                  </g>
                  <g
                     id="g1732"
                     transform="translate(2011.9,454.15079)">
                    <g
                       id="text4335-4-7"
                       style="font-style:normal;font-weight:normal;font-size:40.06660843px;line-height:0%;font-family:sans-serif;letter-spacing:0px;word-spacing:0px;display:inline;fill:#ff6600;fill-opacity:1;stroke:none;stroke-width:3.33888388px;stroke-linecap:butt;stroke-linejoin:miter;stroke-opacity:1"
                       transform="matrix(1.0003043,0.01827469,-0.00798396,-0.99984165,0,0)"
                       aria-label="linux">
                      <path
                         id="path1691"
                         style="font-style:normal;font-variant:normal;font-weight:bold;font-stretch:normal;font-size:582.82928467px;line-height:0;font-family:'Courier Prime';-inkscape-font-specification:'Courier Prime Bold';fill:#ff6600;fill-opacity:1;stroke-width:3.33888388px"
                         d="m 11258.065,-7486.6694 h -66.308 q -4.838,0 -8.253,-1.1384 -3.415,-1.1383 -5.692,-4.2688 -1.992,-3.1304 -3.13,-8.8221 -0.854,-5.6917 -0.854,-14.7984 0,-9.1067 0.854,-14.7984 1.138,-5.6917 3.13,-8.8221 2.277,-3.415 5.692,-4.5533 3.415,-1.1384 8.253,-1.1384 h 119.525 q 9.676,0 13.66,4.2688 4.269,3.9842 4.269,13.66 v 297.1064 h 79.968 q 4.838,0 8.253,1.1383 3.415,1.1384 5.407,4.5534 2.277,3.1304 3.131,8.8221 1.138,5.6917 1.138,14.7984 0,9.1067 -1.138,14.7984 -0.854,5.6917 -3.131,8.8221 -1.992,3.1304 -5.407,4.2688 -3.415,1.1383 -8.253,1.1383 h -228.806 q -4.838,0 -8.253,-1.1383 -3.415,-1.1384 -5.691,-4.2688 -1.992,-3.1304 -3.131,-8.8221 -0.854,-5.6917 -0.854,-14.7984 0,-9.1067 0.854,-14.7984 1.139,-5.6917 3.131,-8.8221 2.276,-3.415 5.691,-4.5534 3.415,-1.1383 8.253,-1.1383 h 77.692 z"
                         inkscape:connector-curvature="0" />
                      <path
                         id="path1693"
                         style="font-style:normal;font-variant:normal;font-weight:bold;font-stretch:normal;font-size:582.82928467px;line-height:0;font-family:'Courier Prime';-inkscape-font-specification:'Courier Prime Bold';fill:#ff6600;fill-opacity:1;stroke-width:3.33888388px"
                         d="m 11610.381,-7376.2506 h -54.925 q -4.838,0 -8.253,-1.1384 -3.415,-1.1383 -5.692,-4.2687 -1.992,-3.1305 -3.13,-8.8221 -0.854,-5.6917 -0.854,-14.7984 0,-9.1068 0.854,-14.7984 1.138,-5.6917 3.13,-8.8222 2.277,-3.415 5.692,-4.5533 3.415,-1.1384 8.253,-1.1384 h 108.142 q 9.676,0 13.66,4.2688 4.269,3.9842 4.269,13.6601 v 186.6875 h 79.968 q 4.838,0 8.253,1.1383 3.415,1.1384 5.407,4.5534 2.277,3.1304 3.131,8.8221 1.138,5.6917 1.138,14.7984 0,9.1067 -1.138,14.7984 -0.854,5.6917 -3.131,8.8221 -1.992,3.1304 -5.407,4.2688 -3.415,1.1383 -8.253,1.1383 h -228.806 q -4.838,0 -8.253,-1.1383 -3.415,-1.1384 -5.692,-4.2688 -1.992,-3.1304 -3.13,-8.8221 -0.854,-5.6917 -0.854,-14.7984 0,-9.1067 0.854,-14.7984 1.138,-5.6917 3.13,-8.8221 2.277,-3.415 5.692,-4.5534 3.415,-1.1383 8.253,-1.1383 h 77.692 z m 71.146,-124.3635 q 0,9.6759 -7.399,13.9447 -7.4,3.9841 -27.605,3.9841 -20.206,0 -28.174,-3.9841 -7.968,-4.2688 -7.968,-13.9447 v -46.6719 q 0,-4.8379 1.423,-8.2529 1.707,-3.415 5.691,-5.4071 3.984,-2.2767 10.53,-3.1305 6.83,-1.1383 17.075,-1.1383 20.205,0 28.174,4.2688 8.253,3.9842 8.253,13.66 z"
                         inkscape:connector-curvature="0" />
                      <path
                         id="path1695"
                         style="font-style:normal;font-variant:normal;font-weight:bold;font-stretch:normal;font-size:582.82928467px;line-height:0;font-family:'Courier Prime';-inkscape-font-specification:'Courier Prime Bold';fill:#ff6600;fill-opacity:1;stroke-width:3.33888388px"
                         d="m 11878.459,-7376.2506 h -27.604 q -4.838,0 -8.253,-1.1384 -3.415,-1.1383 -5.692,-4.2687 -1.992,-3.1305 -3.13,-8.8221 -0.854,-5.6917 -0.854,-14.7984 0,-9.1068 0.854,-14.7984 1.138,-5.6917 3.13,-8.8222 2.277,-3.415 5.692,-4.5533 3.415,-1.1384 8.253,-1.1384 h 69.438 q 9.676,0 13.66,4.2688 4.269,3.9842 4.269,13.6601 v 41.2647 q 19.921,-34.7193 43.542,-50.0869 23.62,-15.3675 50.371,-15.3675 19.636,0 35.573,6.5454 15.937,6.5455 27.036,18.498 11.098,11.9526 17.075,29.3122 6.261,17.0751 6.261,38.419 v 118.1026 h 21.913 q 4.838,0 8.253,1.1383 3.415,1.1384 5.407,4.5534 2.276,3.1304 3.13,8.8221 1.138,5.6917 1.138,14.7984 0,9.1067 -1.138,14.7984 -0.854,5.6917 -3.13,8.8221 -1.992,3.1304 -5.407,4.2688 -3.415,1.1383 -8.253,1.1383 h -106.435 q -4.838,0 -8.253,-1.1383 -3.415,-1.1384 -5.692,-4.2688 -1.992,-3.1304 -3.13,-8.8221 -0.854,-5.6917 -0.854,-14.7984 0,-9.1067 0.854,-14.7984 1.138,-5.6917 3.13,-8.8221 2.277,-3.415 5.692,-4.5534 3.415,-1.1383 8.253,-1.1383 h 13.375 v -101.3121 q 0,-21.0593 -7.399,-33.0119 -7.114,-11.9525 -25.897,-11.9525 -12.806,0 -24.474,8.2529 -11.384,7.9684 -20.206,21.6285 -8.822,13.66 -14.229,31.8734 -5.123,18.2135 -5.123,38.1344 v 46.3873 h 13.376 q 4.838,0 8.253,1.1383 3.415,1.1384 5.407,4.5534 2.277,3.1304 3.13,8.8221 1.139,5.6917 1.139,14.7984 0,9.1067 -1.139,14.7984 -0.853,5.6917 -3.13,8.8221 -1.992,3.1304 -5.407,4.2688 -3.415,1.1383 -8.253,1.1383 h -106.435 q -4.838,0 -8.253,-1.1383 -3.415,-1.1384 -5.691,-4.2688 -1.992,-3.1304 -3.131,-8.8221 -0.854,-5.6917 -0.854,-14.7984 0,-9.1067 0.854,-14.7984 1.139,-5.6917 3.131,-8.8221 2.276,-3.415 5.691,-4.5534 3.415,-1.1383 8.253,-1.1383 h 21.913 z"
                         inkscape:connector-curvature="0" />
                      <path
                         id="path1697"
                         style="font-style:normal;font-variant:normal;font-weight:bold;font-stretch:normal;font-size:582.82928467px;line-height:0;font-family:'Courier Prime';-inkscape-font-specification:'Courier Prime Bold';fill:#ff6600;fill-opacity:1;stroke-width:3.33888388px"
                         d="m 12198.332,-7376.2506 q -4.838,0 -8.253,-1.1384 -3.415,-1.1383 -5.691,-4.2687 -1.992,-3.415 -3.131,-9.1067 -0.853,-5.6917 -0.853,-14.7984 0,-9.1067 0.853,-14.7984 1.139,-5.6917 3.131,-8.8222 2.276,-3.1304 5.691,-4.2687 3.415,-1.1384 8.253,-1.1384 h 75.131 q 9.676,0 13.66,4.2688 4.269,3.9842 4.269,13.6601 v 141.7231 q 0,21.0593 7.114,33.0118 7.399,11.9526 26.182,11.9526 12.806,0 24.19,-7.9684 11.668,-8.2529 20.49,-21.913 8.822,-13.6601 13.944,-31.5889 5.407,-18.2134 5.407,-38.4189 v -46.3873 h -30.45 q -4.838,0 -8.253,-1.1384 -3.415,-1.1383 -5.692,-4.2687 -1.992,-3.415 -3.13,-9.1067 -0.854,-5.6917 -0.854,-14.7984 0,-9.1067 0.854,-14.7984 1.138,-5.6917 3.13,-8.8222 2.277,-3.1304 5.692,-4.2687 3.415,-1.1384 8.253,-1.1384 h 83.668 q 9.676,0 13.66,4.2688 4.269,3.9842 4.269,13.6601 v 186.6875 h 21.913 q 4.838,0 8.253,1.1383 3.415,1.1384 5.407,4.2688 2.276,3.1304 3.13,8.8221 1.138,5.6917 1.138,14.7984 0,9.1067 -1.138,14.7984 -0.854,5.6917 -3.13,9.1067 -1.992,3.1304 -5.407,4.2688 -3.415,1.1383 -8.253,1.1383 h -63.747 q -9.676,0 -13.945,-3.9842 -3.984,-4.2687 -3.984,-13.9446 v -41.2648 q -19.921,34.7193 -43.542,50.0869 -23.62,15.3676 -50.371,15.3676 -19.636,0 -35.573,-6.5455 -15.937,-6.5454 -27.036,-18.498 -11.098,-11.9525 -17.359,-29.0276 -5.977,-17.3597 -5.977,-38.7035 v -118.1026 z"
                         inkscape:connector-curvature="0" />
                      <path
                         id="path1699"
                         style="font-style:normal;font-variant:normal;font-weight:bold;font-stretch:normal;font-size:582.82928467px;line-height:0;font-family:'Courier Prime';-inkscape-font-specification:'Courier Prime Bold';fill:#ff6600;fill-opacity:1;stroke-width:3.33888388px"
                         d="m 12641.146,-7305.1045 -70.008,-71.1461 h -14.798 q -4.838,0 -8.253,-1.1384 -3.415,-1.1383 -5.692,-4.2687 -1.992,-3.1305 -3.13,-8.8221 -0.854,-5.6917 -0.854,-14.7984 0,-9.1068 0.854,-14.7984 1.138,-5.6917 3.13,-8.8222 2.277,-3.415 5.692,-4.5533 3.415,-1.1384 8.253,-1.1384 h 106.435 q 4.837,0 8.252,1.1384 3.416,1.1383 5.408,4.5533 2.276,3.1305 3.13,8.8222 1.138,5.6916 1.138,14.7984 0,9.1067 -1.138,14.7984 -0.854,5.6916 -3.13,8.8221 -1.992,3.1304 -5.408,4.2687 -3.415,1.1384 -8.252,1.1384 h -3.7 l 36.427,37.2806 34.434,-37.2806 h -6.26 q -4.838,0 -8.253,-1.1384 -3.415,-1.1383 -5.692,-4.2687 -1.992,-3.1305 -3.13,-8.8221 -0.854,-5.6917 -0.854,-14.7984 0,-9.1068 0.854,-14.7984 1.138,-5.6917 3.13,-8.8222 2.277,-3.415 5.692,-4.5533 3.415,-1.1384 8.253,-1.1384 h 100.743 q 4.838,0 8.253,1.1384 3.415,1.1383 5.407,4.5533 2.276,3.1305 3.13,8.8222 1.138,5.6916 1.138,14.7984 0,9.1067 -1.138,14.7984 -0.854,5.6916 -3.13,8.8221 -1.992,3.1304 -5.407,4.2687 -3.415,1.1384 -8.253,1.1384 h -16.791 l -68.585,71.4307 73.708,74.8458 h 14.513 q 4.838,0 8.253,1.1383 3.415,1.1384 5.407,4.5534 2.277,3.1304 3.131,8.8221 1.138,5.6917 1.138,14.7984 0,9.1067 -1.138,14.7984 -0.854,5.6917 -3.131,8.8221 -1.992,3.1304 -5.407,4.2688 -3.415,1.1383 -8.253,1.1383 h -109.28 q -4.838,0 -8.253,-1.1383 -3.415,-1.1384 -5.692,-4.2688 -1.992,-3.1304 -3.13,-8.8221 -0.854,-5.6917 -0.854,-14.7984 0,-9.1067 0.854,-14.7984 1.138,-5.6917 3.13,-8.8221 2.277,-3.415 5.692,-4.5534 3.415,-1.1383 8.253,-1.1383 h 3.984 l -37.28,-38.1344 -35.289,38.1344 h 4.838 q 4.838,0 8.253,1.1383 3.415,1.1384 5.407,4.5534 2.277,3.1304 3.13,8.8221 1.139,5.6917 1.139,14.7984 0,9.1067 -1.139,14.7984 -0.853,5.6917 -3.13,8.8221 -1.992,3.1304 -5.407,4.2688 -3.415,1.1383 -8.253,1.1383 h -100.743 q -4.838,0 -8.253,-1.1383 -3.415,-1.1384 -5.692,-4.2688 -1.992,-3.1304 -3.13,-8.8221 -0.854,-5.6917 -0.854,-14.7984 0,-9.1067 0.854,-14.7984 1.138,-5.6917 3.13,-8.8221 2.277,-3.415 5.692,-4.5534 3.415,-1.1383 8.253,-1.1383 h 15.368 z"
                         inkscape:connector-curvature="0" />
                    </g>
                  </g>
                </g>
              </g>
            </g>
          </g>
        </g>
      </g>
    </g>
  </g>
</svg>
